N_back_Classification
…
wide_form %<>% 
  mutate(Subject=as.factor(Subject))

wide_form %>%
  select(Subject, AB_I_O, AB_I_DO, CD_I_O, CD_I_DO) %>%
  group_by(Subject) %>%
  summarise(Mean_AB_O=mean(AB_I_O),
            Mean_AB_DO=mean(AB_I_DO),
            Mean_CD_O=mean(CD_I_O),
            Mean_CD_DO=mean(CD_I_DO)
            )

# A tibble: 68 × 5
   Subject    Mean_AB_O Mean_AB_DO Mean_CD_O Mean_CD_DO
   <fct>          <dbl>      <dbl>     <dbl>      <dbl>
 1 Subject 1    -0.0140   -0.0659     0.155    -0.131  
 2 Subject 10    0.161    -0.0299     0.136    -0.0698 
 3 Subject 11   -0.0368    0.0106    -0.270    -0.167  
 4 Subject 12   -0.0116   -0.0183     0.0960   -0.0412 
 5 Subject 13    0.0692   -0.00947    0.0189    0.00488
 6 Subject 14    0.122    -0.0643     0.191    -0.0882 
 7 Subject 15    0.0268   -0.0193     0.114    -0.0745 
 8 Subject 16    0.199    -0.0985     0.0394   -0.0132 
 9 Subject 17    0.0793   -0.0561     0.140    -0.0490 
10 Subject 18   -0.0756    0.0629    -0.0371    0.0533 
# ℹ 58 more rows
…
